…
rsquare_tibble <- bootstrap_results |> 
  unnest(rsquare) |> 
  select(.id, r.squared, adj.r.squared)

bootstrap_results_merged <- 
  left_join(coefs_tibble, rsquare_tibble, by = ".id")


bootstrap_results_merged
```

    ## # A tibble: 5,000 × 7
    ##    .id   `(Intercept)`  tmin      prcp beta_slope r.squared adj.r.squared
    ##    <chr>         <dbl> <dbl>     <dbl>      <dbl>     <dbl>         <dbl>
    ##  1 0001           7.63  1.04 -0.00439       -237.     0.913         0.913
    ##  2 0002           7.56  1.04 -0.00245       -424.     0.921         0.920
    ##  3 0003           7.61  1.03 -0.000690     -1492.     0.905         0.905
    ##  4 0004           7.27  1.06 -0.00290       -364.     0.921         0.921
    ##  5 0005           7.79  1.02 -0.00222       -461.     0.906         0.905
    ##  6 0006           7.54  1.04 -0.00164       -634.     0.915         0.915
    ##  7 0007           7.50  1.04 -0.00129       -808.     0.919         0.919
    ##  8 0008           7.54  1.04 -0.000428     -2435.     0.905         0.905
    ##  9 0009           7.59  1.05 -0.00145       -723.     0.917         0.917
    ## 10 0010           7.36  1.04 -0.00303       -344.     0.916         0.915
    ## # ℹ 4,990 more rows
…
